"start","end","chr","IL"
45,2607,"SL2.40ch01","IL 1-1"
45,157,"SL2.40ch01","IL 1-1-2"
2,488,"SL2.40ch01","IL 1-1-3"
2379,2822,"SL2.40ch01","IL 1-2"
2800,3637,"SL2.40ch01","IL 1-3"
3355,4282,"SL2.40ch01","IL 1-4"
4079,4282,"SL2.40ch01","IL 1-4-18"
1,1864,"SL2.40ch10","IL 10-1"
26,342,"SL2.40ch10","IL 10-1-1"
1740,2432,"SL2.40ch10","IL 10-2"
1916,2154,"SL2.40ch10","IL 10-2-2"
2160,2546,"SL2.40ch10","IL 10-3"
1,587,"SL2.40ch11","IL 11-1"
323,1960,"SL2.40ch11","IL 11-2"
785,2243,"SL2.40ch11","IL 11-3"
2151,2385,"SL2.40ch11","IL 11-4"
2283,2385,"SL2.40ch11","IL 11-4-1"
1,241,"SL2.40ch12","IL 12-1"
1,126,"SL2.40ch12","IL 12-1-1"
1,1656,"SL2.40ch12","IL 12-2 (a)"
1768,1916,"SL2.40ch12","IL 12-2 (b)"
366,2354,"SL2.40ch12","IL 12-3"
366,797,"SL2.40ch12","IL 12-3-1"
2023,2481,"SL2.40ch12","IL 12-4"
2424,2481,"SL2.40ch12","IL 12-4-1"
1,895,"SL2.40ch02","IL 2-1"
1,337,"SL2.40ch02","IL 2-1-1 (a)"
564,636,"SL2.40ch02","IL 2-1-1 (b)"
807,1058,"SL2.40ch02","IL 2-2"
951,1538,"SL2.40ch02","IL 2-3 (a)"
1545,2047,"SL2.40ch02","IL 2-3 (b)"
1211,2392,"SL2.40ch02","IL 2-4"
1948,3190,"SL2.40ch02","IL 2-5"
2870,3348,"SL2.40ch02","IL 2-6"
3166,3348,"SL2.40ch02","IL 2-6-5"
1,191,"SL2.40ch03","IL 3-1"
179,363,"SL2.40ch03","IL 3-2 (a)"
412,2081,"SL2.40ch03","IL 3-2 (b)"
2135,2135,"SL2.40ch03","IL 3-2 (c)"
302,409,"SL2.40ch03","IL 3-3 (a)"
904,2773,"SL2.40ch03","IL 3-3 (b)"
2142,2926,"SL2.40ch03","IL 3-4"
2869,3351,"SL2.40ch03","IL 3-5"
1,573,"SL2.40ch04","IL 4-1"
1,98,"SL2.40ch04","IL 4-1-1"
228,1706,"SL2.40ch04","IL 4-2"
549,2522,"SL2.40ch04","IL 4-3"
549,1881,"SL2.40ch04","IL 4-3-2"
2277,2742,"SL2.40ch04","IL 4-4"
1,294,"SL2.40ch05","IL 5-1"
155,294,"SL2.40ch05","IL 5-2"
999,2127,"SL2.40ch05","IL 5-3"
2098,2266,"SL2.40ch05","IL 5-4"
2164,2418,"SL2.40ch05","IL 5-5"
1,1213,"SL2.40ch06","IL 6-1"
1063,2158,"SL2.40ch06","IL 6-2"
1063,1748,"SL2.40ch06","IL 6-2-2"
2117,2813,"SL2.40ch06","IL 6-3"
2667,2813,"SL2.40ch06","IL 6-4"
2235,2493,"SL2.40ch07","IL 7-1"
1440,2493,"SL2.40ch07","IL 7-2"
1440,2168,"SL2.40ch07","IL 7-3"
1,1900,"SL2.40ch07","IL 7-4"
1,1443,"SL2.40ch07","IL 7-4-1"
1,368,"SL2.40ch07","IL 7-5"
1,335,"SL2.40ch07","IL 7-5-5"
1,1184,"SL2.40ch08","IL 8-1"
1,1183,"SL2.40ch08","IL 8-1-1"
1,361,"SL2.40ch08","IL 8-1-5"
1264,2153,"SL2.40ch08","IL 8-2"
1264,1942,"SL2.40ch08","IL 8-2-1"
1949,2460,"SL2.40ch08","IL 8-3"
2334,2460,"SL2.40ch08","IL 8-3-1"
1,524,"SL2.40ch09","IL 9-1"
1,257,"SL2.40ch09","IL 9-1-2"
112,648,"SL2.40ch09","IL 9-1-3"
317,1891,"SL2.40ch09","IL 9-2"
317,402,"SL2.40ch09","IL 9-2-5"
902,912,"SL2.40ch09","IL 9-2-6 (a)"
1533,1891,"SL2.40ch09","IL 9-2-6 (b)"
1794,2510,"SL2.40ch09","IL 9-3"
1,16,"SL2.40ch12","IL 9-3-1 (**chr12**)"
2005,2510,"SL2.40ch09","IL 9-3-1 (chr09)"
2001,2321,"SL2.40ch09","IL 9-3-2"
